[
  {
    "name": "Sebastian-105",
    "root": "",
    "sub": "Homepage",
    "img": "./105.png",
    "id": "Sebastian-105"
  },
  {
    "name": "1v1.lol",
    "root": "c/1v1lol",
    "sub": "Fortnite but bad",
    "img": "./105.png",
    "id": "1v1"
  },
  {
    "name": "Slope",
    "root": "c/Slope",
    "sub": "S P E E D",
    "img": "./105.png",
    "id": "slope"
  },
  {
    "name": "2048",
    "root": "c/2048",
    "sub": "Can you get the 2048?",
    "img": "./105.png",
    "id": "twentyfortyeight"
  },
  {
    "name": "iAsk.ai",
    "root": "c/https://iask.ai",
    "sub": "Like ChatGPT",
    "img": "./105.png",
    "id": "ai"
  },
  {
    "name": "aquapark slide",
    "root": "c/aquapark",
    "sub": "S L I D E!",
    "img": "./105.png",
    "id": "aps"
  },
  {
    "name": "Bitlife",
    "root": "c/bitlife",
    "sub": "Bitlife, thats all",
    "img": "./105.png",
    "id": "bitlife"
  },
  {
    "name": "Chess",
    "root": "c/chess",
    "sub": "Impossible mode",
    "img": "./105.png",
    "id": "chess"
  },
  {
    "name": "Cookie Clicker",
    "root": "c/CookieClicker",
    "sub": "Buy those grandmas",
    "img": "./105.png",
    "id": "cc"
  },
  {
    "name": "Copter.io",
    "root": "c/copter",
    "sub": "Only works at home",
    "img": "./105.png",
    "id": "cio"
  },
  {
    "name": "Crossy Road",
    "root": "c/CrossyRoad",
    "sub": "Cross the road.",
    "img": "./105.png",
    "id": "cr"
  },
  {
    "name": "Doctor Acorn 3",
    "root": "c/DoctorAcorn3",
    "sub": "Other 2 dr. acorns are dead (maybe)",
    "img": "./105.png",
    "id": "da3"
  },
  {
    "name": "Doodle Jump",
    "root": "c/DoodleJump",
    "sub": "I have no idea what this is",
    "img": "./105.png",
    "id": "dj"
  },
  {
    "name": "DriftBoss",
    "root": "c/DriftBoss",
    "sub": "V R O O M",
    "img": "./105.png",
    "id": "db"
  },
  {
    "name": "Duck Life 4",
    "root": "c/DuckLife4",
    "sub": "That one duck game",
    "img": "./105.png",
    "id": "dl4"
  },
  {
    "name": "Eaglercraft [1.5.2 & 1.8.8]",
    "root": "https://eaglercraft-105.vercel.app/",
    "sub": "Minecraft but old",
    "img": "./105.png",
    "id": "eagler188"
  },
  {
    "name": "Flappy Bird",
    "root": "c/FlappyBird",
    "sub": "B I R B",
    "img": "./105.png",
    "id": "flappybirb"
  },
  {
    "name": "Flash Tetris",
    "root": "c/FPTetris",
    "sub": "Tetris but first person",
    "img": "./105.png",
    "id": "fpt"
  },
  {
    "name": "Geometry Dash",
    "root": "c/GeometryDash",
    "sub": "Stratch Version",
    "img": "./105.png",
    "id": ""
  },
  {
    "name": "Getting Over It",
    "root": "c/GettingOverIt",
    "sub": "${game desc. here}",
    "img": "./105.png",
    "id": ""
  },
  {
    "name": "Happy Wheels",
    "root": "c/HappyWheels",
    "sub": "An old game",
    "img": "./105.png",
    "id": ""
  },
  {
    "name": "Hextris",
    "root": "c/hextris",
    "sub": "hexagon",
    "img": "./105.png",
    "id": ""
  },
  {
    "name": "Jetpack Joyride",
    "root": "c/JetpackJoyride",
    "sub": "green little shooter flying",
    "img": "./105.png",
    "id": ""
  },
  {
    "name": "Krunker.io",
    "root": "c/krunker",
    "sub": "doesn't work anymore",
    "img": "./105.png",
    "id": ""
  },
  {
    "name": "Lows Adventures 2",
    "root": "c/LowsAdventures2",
    "sub": "wheres #1?",
    "img": "./105.png",
    "id": ""
  },
  {
    "name": "Magic Keyboard",
    "root": "c/mkb",
    "sub": "Hocus Pocus!",
    "img": "./105.png",
    "id": ""
  },
  {
    "name": "Ping pong but bad",
    "root": "c/nerd",
    "sub": "kinda bad",
    "img": "./105.png",
    "id": ""
  },
  {
    "name": "Pacman",
    "root": "c/pacman",
    "sub": "Nom Nom eat em up!",
    "img": "./105.png",
    "id": ""
  },
  {
    "name": "Paper.io",
    "root": "c/paperio",
    "sub": "bots",
    "img": "./105.png",
    "id": ""
  },
  {
    "name": "proxy",
    "root": "c/proxy",
    "sub": "Used to unblock stuff",
    "img": "./105.png",
    "id": ""
  },
  {
    "name": "RetroBowl",
    "root": "c/retrobowl",
    "sub": "Pixelated (american) football",
    "img": "./105.png",
    "id": ""
  },
  {
    "name": "Relic Runway",
    "root": "c/RR",
    "sub": "Subway Surfers but different",
    "img": "./105.png",
    "id": ""
  },
  {
    "name": "Rocket Bot Royale",
    "root": "c/rocket",
    "sub": "2d battle royale with rocket-tanks",
    "img": "./105.png",
    "id": ""
  },
  {
    "name": "Run 3",
    "root": "c/Run3",
    "sub": "RUN! Little gray dude RUN!",
    "img": "./105.png",
    "id": ""
  },
  {
    "name": "Slinguin",
    "root": "c/Slinguin",
    "sub": "what is this?",
    "img": "./105.png",
    "id": ""
  },
  {
    "name": "Solitaire",
    "root": "c/solitaire",
    "sub": "Your depressed?",
    "img": "./105.png",
    "id": ""
  },
  {
    "name": "Stack",
    "root": "c/stack",
    "sub": "A mobile game",
    "img": "./105.png",
    "id": ""
  },
  {
    "name": "Stickman Hook",
    "root": "c/stickman",
    "sub": "Test ur skills, are you spider-man.",
    "img": "./105.png",
    "id": ""
  },

  {
    "name": "Stick Ninja",
    "root": "c/StickNinja",
    "sub": "A stickman thats a ninja",
    "img": "./105.png",
    "id": ""
  },
  {
    "name": "Subway Surfers",
    "root": "c/SubwaySurfers",
    "sub": "A mobile game",
    "img": "./105.png",
    "id": ""
  },
  {
    "name": "Sugar Sugar 3",
    "root": "c/SugarSugar3",
    "sub": "wht is this?",
    "img": "./105.png",
    "id": ""
  },
  {
    "name": "T-rex game",
    "root": "c/t-rex",
    "sub": "made by google",
    "img": "./105.png",
    "id": ""
  },
  {
    "name": "Temple Run",
    "root": "c/TempleRun",
    "sub": "It's subway surfers, that's it",
    "img": "./105.png",
    "id": ""
  },
  {
    "name": "Trimps",
    "root": "c/trimps",
    "sub": "idk what this is",
    "img": "./105.png",
    "id": ""
  },
  {
    "name": "Wordle",
    "root": "c/Wordle",
    "sub": "Changes daily",
    "img": "./105.png",
    "id": ""
  },
  {
    "name": "Worlds Hardest Game",
    "root": "c/worlds-hardest-game",
    "sub": "YOU WILL RAGE QUIT",
    "img": "./105.png",
    "id": ""
  },
  {
    "name": "Worlds Hardest Game ×2",
    "root": "c/worlds-hardest-game-2",
    "sub": "YOU WILL RAGE QUIT ×2",
    "img": "./105.png",
    "id": ""
  },
  {
    "name": "Zombsroyale.io",
    "root": "c/Zombsroyale-multiplayer",
    "sub": "100 Player 2D Real-Time Battle Royale",
    "img": "./105.png",
    "id": ""
  }
]
